\relax 
\@writefile{toc}{\contentsline {section}{\numberline {1}Inauguration}{2}}
\@writefile{toc}{\contentsline {subsection}{\numberline {1.1}Motivation}{2}}
\@writefile{toc}{\contentsline {subsection}{\numberline {1.2}Goal}{2}}
\newlabel{SC@1}{{1.2}{3}}
\@writefile{lof}{\contentsline {figure}{\numberline {1}{\ignorespaces Presenting the position of the buses in a real-time manner.}}{3}}
\@writefile{toc}{\contentsline {subsection}{\numberline {1.3}Hypothesis}{3}}
\@writefile{toc}{\contentsline {subsection}{\numberline {1.4}Methodology}{4}}
\@writefile{toc}{\contentsline {subsubsection}{\numberline {1.4.1}Track the rate of downloading the Application}{5}}
\@writefile{toc}{\contentsline {subsubsection}{\numberline {1.4.2}App Rating and App Commenting}{5}}
\@writefile{toc}{\contentsline {subsubsection}{\numberline {1.4.3}Watching and monitoring the data transmission between all clients and of the servers}{5}}
\@writefile{toc}{\contentsline {subsubsection}{\numberline {1.4.4}With the service of bus operating companies}{6}}
\@writefile{toc}{\contentsline {subsubsection}{\numberline {1.4.5}With the cooperation of Crowd-Participants}{6}}
\@writefile{toc}{\contentsline {subsubsection}{\numberline {1.4.6}Draw the Eye with Color}{6}}
\@writefile{toc}{\contentsline {subsubsection}{\numberline {1.4.7}Use Icons to Guide Users}{6}}
\@writefile{toc}{\contentsline {subsubsection}{\numberline {1.4.8}Ensure Device Compatibility}{7}}
\@writefile{toc}{\contentsline {subsubsection}{\numberline {1.4.9}Offer Non-Obtrusive In-App Purchases}{7}}
\citation{1}
\@writefile{toc}{\contentsline {subsection}{\numberline {1.5}Literature review}{8}}
\citation{1}
\citation{1}
\citation{1}
\citation{1}
\newlabel{SC@2}{{1.5}{12}}
\@writefile{lof}{\contentsline {figure}{\numberline {2}{\ignorespaces Schematic of performance of the system.}}{12}}
\citation{3}
\citation{4}
\citation{4}
\citation{5}
\citation{5}
\citation{5}
\citation{5}
\citation{6}
\citation{6}
\citation{7}
\citation{7}
\citation{7}
\citation{7}
\citation{7}
\citation{7}
\citation{8}
\citation{8}
\citation{9}
\citation{10}
\citation{9}
\citation{10}
\bibcite{1}{1}
\bibcite{2}{2}
\bibcite{3}{3}
\bibcite{4}{4}
\bibcite{5}{5}
\bibcite{6}{6}
\bibcite{7}{7}
\bibcite{8}{8}
\bibcite{9}{9}
\bibcite{10}{10}
