\relax 
\@writefile{toc}{\contentsline {part}{I\hspace  {1em}Questions I made before starting to search}{1}}
\@writefile{toc}{\contentsline {section}{\numberline {1}How to measure the success of an application}{1}}
\@writefile{toc}{\contentsline {subsection}{\numberline {1.1}Pursue the rate of downloading the Application }{1}}
\@writefile{toc}{\contentsline {subsection}{\numberline {1.2}Rate and Comments}{2}}
\@writefile{toc}{\contentsline {subsection}{\numberline {1.3}Monitoring the data traffic of the servers}{2}}
\@writefile{toc}{\contentsline {section}{\numberline {2}How to gather all needed information}{2}}
\@writefile{toc}{\contentsline {subsection}{\numberline {2.1}With the service of bus operating companies}{2}}
\@writefile{toc}{\contentsline {subsection}{\numberline {2.2}With the cooperation of Crowd-Participants}{2}}
\@writefile{toc}{\contentsline {section}{\numberline {3}How to improve and make an application more user friendly}{3}}
\@writefile{toc}{\contentsline {section}{\numberline {4}What are the best techniques to promote an application }{3}}
\@writefile{toc}{\contentsline {part}{II\hspace  {1em}Search strings I used to retrieve documents}{3}}
\@writefile{toc}{\contentsline {part}{III\hspace  {1em}The criteria I used for filtering }{3}}
\citation{1}
\citation{1}
\@writefile{toc}{\contentsline {part}{IV\hspace  {1em}Literature review}{4}}
\citation{1}
\citation{1}
\citation{1}
\citation{3}
\citation{4}
\citation{4}
\citation{5}
\citation{5}
\citation{5}
\citation{5}
\citation{6}
\citation{6}
\citation{7}
\citation{7}
\citation{7}
\citation{7}
\citation{7}
\citation{7}
\citation{8}
\citation{8}
\citation{9}
\citation{10}
\citation{9}
\citation{10}
\@writefile{toc}{\contentsline {part}{V\hspace  {1em}CHAPTER TWO}{10}}
\bibcite{1}{1}
\bibcite{2}{2}
\bibcite{3}{3}
\bibcite{4}{4}
\bibcite{5}{5}
\bibcite{6}{6}
\bibcite{7}{7}
\bibcite{8}{8}
\bibcite{9}{9}
\bibcite{10}{10}
\@writefile{toc}{\contentsline {part}{VI\hspace  {1em}List of 10 papers selected I think are the most useful}{11}}
