\relax 
\@writefile{toc}{\contentsline {section}{\numberline {1}Questions you made before starting to search}{1}}
\@writefile{toc}{\contentsline {section}{\numberline {2}Search strings you used to retrieve documents (use Google scholar)}{1}}
\@writefile{toc}{\contentsline {section}{\numberline {3}Criteria you used for filtering (this according to your needs)}{1}}
\@writefile{toc}{\contentsline {section}{\numberline {4}List of 10 papers selected you think are the most useful}{1}}
