\relax 
\providecommand\zref@newlabel[2]{}
\providecommand\hyper@newdestlabel[2]{}
\providecommand\HyperFirstAtBeginDocument{\AtBeginDocument}
\HyperFirstAtBeginDocument{\ifx\hyper@anchor\@undefined
\global\let\oldcontentsline\contentsline
\gdef\contentsline#1#2#3#4{\oldcontentsline{#1}{#2}{#3}}
\global\let\oldnewlabel\newlabel
\gdef\newlabel#1#2{\newlabelxx{#1}#2}
\gdef\newlabelxx#1#2#3#4#5#6{\oldnewlabel{#1}{{#2}{#3}}}
\AtEndDocument{\ifx\hyper@anchor\@undefined
\let\contentsline\oldcontentsline
\let\newlabel\oldnewlabel
\fi}
\fi}
\global\let\hyper@last\relax 
\gdef\HyperFirstAtBeginDocument#1{#1}
\providecommand*\HyPL@Entry[1]{}
\HyPL@Entry{0<</S/D>>}
\providecommand \oddpage@label [2]{}
\pgfsyspdfmark {pgfid1}{4950088}{33731026}
\pgfsyspdfmark {pgfid2}{4661699}{12843658}
\pgfsyspdfmark {pgfid3}{5317059}{30784265}
\pgfsyspdfmark {pgfid4}{4661699}{37940514}
\pgfsyspdfmark {pgfid5}{9059525}{25297377}
\pgfsyspdfmark {pgfid6}{5317059}{11392109}
\pgfsyspdfmark {pgfid7}{4661699}{23405538}
\pgfsyspdfmark {pgfid8}{5317059}{17717040}
\pgfsyspdfmark {pgfid9}{4661699}{29860978}
\pgfsyspdfmark {pgfid10}{5317059}{26564400}
\pgfsyspdfmark {pgfid11}{4661699}{44459008}
\pgfsyspdfmark {pgfid12}{5317059}{25050892}
\pgfsyspdfmark {pgfid13}{4661699}{44291072}
\pgfsyspdfmark {pgfid14}{5317059}{36292773}
\pgfsyspdfmark {pgfid15}{4661699}{44462412}
\pgfsyspdfmark {pgfid16}{5317059}{36533290}
\pgfsyspdfmark {pgfid17}{5207809}{28441901}
