\relax 
\providecommand\zref@newlabel[2]{}
\providecommand\hyper@newdestlabel[2]{}
\providecommand\HyperFirstAtBeginDocument{\AtBeginDocument}
\HyperFirstAtBeginDocument{\ifx\hyper@anchor\@undefined
\global\let\oldcontentsline\contentsline
\gdef\contentsline#1#2#3#4{\oldcontentsline{#1}{#2}{#3}}
\global\let\oldnewlabel\newlabel
\gdef\newlabel#1#2{\newlabelxx{#1}#2}
\gdef\newlabelxx#1#2#3#4#5#6{\oldnewlabel{#1}{{#2}{#3}}}
\AtEndDocument{\ifx\hyper@anchor\@undefined
\let\contentsline\oldcontentsline
\let\newlabel\oldnewlabel
\fi}
\fi}
\global\let\hyper@last\relax 
\gdef\HyperFirstAtBeginDocument#1{#1}
\providecommand*\HyPL@Entry[1]{}
\HyPL@Entry{0<</S/D>>}
\providecommand \oddpage@label [2]{}
\pgfsyspdfmark {pgfid1}{4950088}{34659671}
\pgfsyspdfmark {pgfid2}{4661699}{19264003}
\pgfsyspdfmark {pgfid3}{4661699}{14595430}
\pgfsyspdfmark {pgfid4}{4661699}{38116926}
\pgfsyspdfmark {pgfid5}{4661699}{42769982}
\pgfsyspdfmark {pgfid6}{4661699}{31177094}
\pgfsyspdfmark {pgfid7}{5207809}{43021118}
