\relax 
\providecommand\zref@newlabel[2]{}
\providecommand\hyper@newdestlabel[2]{}
\providecommand\HyperFirstAtBeginDocument{\AtBeginDocument}
\HyperFirstAtBeginDocument{\ifx\hyper@anchor\@undefined
\global\let\oldcontentsline\contentsline
\gdef\contentsline#1#2#3#4{\oldcontentsline{#1}{#2}{#3}}
\global\let\oldnewlabel\newlabel
\gdef\newlabel#1#2{\newlabelxx{#1}#2}
\gdef\newlabelxx#1#2#3#4#5#6{\oldnewlabel{#1}{{#2}{#3}}}
\AtEndDocument{\ifx\hyper@anchor\@undefined
\let\contentsline\oldcontentsline
\let\newlabel\oldnewlabel
\fi}
\fi}
\global\let\hyper@last\relax 
\gdef\HyperFirstAtBeginDocument#1{#1}
\providecommand*\HyPL@Entry[1]{}
\HyPL@Entry{0<</S/D>>}
\providecommand \oddpage@label [2]{}
\pgfsyspdfmark {pgfid1}{4950088}{33731026}
\pgfsyspdfmark {pgfid2}{5317059}{7252907}
\pgfsyspdfmark {pgfid3}{5317059}{5645332}
\pgfsyspdfmark {pgfid4}{5317059}{22647327}
\pgfsyspdfmark {pgfid5}{5317059}{16125532}
\pgfsyspdfmark {pgfid6}{5317059}{8862148}
\pgfsyspdfmark {pgfid7}{5317059}{22580925}
\pgfsyspdfmark {pgfid8}{5317059}{28081263}
\pgfsyspdfmark {pgfid9}{5207809}{42365758}
