\relax 
\@writefile{toc}{\contentsline {chapter}{\hbox to\@tempdima {\hfil }Appendix}{13}}
\@writefile{toc}{\contentsline {chapter}{\numberline {A}Basic and Auxiliary Results}{13}}
\@writefile{lof}{\addvspace {10\p@ }}
\@writefile{lot}{\addvspace {10\p@ }}
\@writefile{toc}{\contentsline {section}{\numberline {A.1}Basic Results}{13}}
\@setckpt{append}{
\setcounter{page}{14}
\setcounter{equation}{0}
\setcounter{enumi}{0}
\setcounter{enumii}{0}
\setcounter{enumiii}{0}
\setcounter{enumiv}{5}
\setcounter{footnote}{0}
\setcounter{mpfootnote}{0}
\setcounter{part}{0}
\setcounter{chapter}{1}
\setcounter{section}{1}
\setcounter{subsection}{0}
\setcounter{subsubsection}{0}
\setcounter{paragraph}{0}
\setcounter{subparagraph}{0}
\setcounter{figure}{0}
\setcounter{table}{0}
\setcounter{parentequation}{0}
\setcounter{ind}{1}
\setcounter{Pro}{0}
\setcounter{The}{0}
\setcounter{Exp}{0}
}
