\relax 
\@writefile{toc}{\contentsline {chapter}{\numberline {1}Motivation}{1}}
\@writefile{lof}{\addvspace {10\p@ }}
\@writefile{lot}{\addvspace {10\p@ }}
\newlabel{1a0001a}{{1.0.1a}{1}}
\newlabel{1a0001b}{{1.0.1b}{1}}
\newlabel{1a0001c}{{1.0.1c}{1}}
\newlabel{1a0001d}{{1.0.1d}{1}}
\newlabel{1a0001e}{{1.0.1e}{1}}
\@setckpt{chapter1}{
\setcounter{page}{3}
\setcounter{equation}{1}
\setcounter{enumi}{0}
\setcounter{enumii}{0}
\setcounter{enumiii}{0}
\setcounter{enumiv}{0}
\setcounter{footnote}{0}
\setcounter{mpfootnote}{0}
\setcounter{part}{0}
\setcounter{chapter}{1}
\setcounter{section}{0}
\setcounter{subsection}{0}
\setcounter{subsubsection}{0}
\setcounter{paragraph}{0}
\setcounter{subparagraph}{0}
\setcounter{figure}{0}
\setcounter{table}{0}
\setcounter{parentequation}{0}
\setcounter{ind}{1}
\setcounter{Pro}{0}
\setcounter{The}{0}
\setcounter{Exp}{0}
}
