\relax 
\@writefile{toc}{\contentsline {chapter}{\numberline {2}General \& Specific Goals}{3}}
\@writefile{lof}{\addvspace {10\p@ }}
\@writefile{lot}{\addvspace {10\p@ }}
\@writefile{toc}{\contentsline {section}{\numberline {2.1}Notation}{3}}
\newlabel{Holder}{{2.1.1}{3}}
\newlabel{gagliar}{{2.1.2}{4}}
\newlabel{Lem201}{{2.1.1}{4}}
\newlabel{2le000}{{2.1.3}{4}}
\@writefile{toc}{\contentsline {section}{\numberline {2.2}The Existence and Uniqueness of the Continuous Problem}{4}}
\newlabel{2B0000a}{{2.2.1a}{5}}
\newlabel{2B0000b}{{2.2.1b}{5}}
\newlabel{2B0000c}{{2.2.1c}{5}}
\newlabel{2B0000d}{{2.2.1d}{5}}
\newlabel{2B0000e}{{2.2.1e}{5}}
\newlabel{2B0000f}{{2.2.1f}{5}}
\@setckpt{chapter2}{
\setcounter{page}{6}
\setcounter{equation}{1}
\setcounter{enumi}{0}
\setcounter{enumii}{0}
\setcounter{enumiii}{0}
\setcounter{enumiv}{0}
\setcounter{footnote}{0}
\setcounter{mpfootnote}{0}
\setcounter{part}{0}
\setcounter{chapter}{2}
\setcounter{section}{2}
\setcounter{subsection}{0}
\setcounter{subsubsection}{0}
\setcounter{paragraph}{0}
\setcounter{subparagraph}{0}
\setcounter{figure}{0}
\setcounter{table}{0}
\setcounter{parentequation}{0}
\setcounter{ind}{1}
\setcounter{Pro}{0}
\setcounter{The}{0}
\setcounter{Exp}{0}
}
