\relax 
\bibcite{BB:95}{1}
\bibcite{BB:97}{2}
\bibcite{BB:99a}{3}
\bibcite{Cia:78}{4}
\bibcite{Li:69}{5}
\@writefile{toc}{\contentsline {chapter}{\hbox to\@tempdima {\hfil }Bibliography}{12}}
\@setckpt{ref}{
\setcounter{page}{13}
\setcounter{equation}{0}
\setcounter{enumi}{0}
\setcounter{enumii}{0}
\setcounter{enumiii}{0}
\setcounter{enumiv}{5}
\setcounter{footnote}{0}
\setcounter{mpfootnote}{0}
\setcounter{part}{0}
\setcounter{chapter}{6}
\setcounter{section}{0}
\setcounter{subsection}{0}
\setcounter{subsubsection}{0}
\setcounter{paragraph}{0}
\setcounter{subparagraph}{0}
\setcounter{figure}{0}
\setcounter{table}{0}
\setcounter{parentequation}{0}
\setcounter{ind}{1}
\setcounter{Pro}{0}
\setcounter{The}{0}
\setcounter{Exp}{0}
}
