\relax 
\@writefile{toc}{\contentsline {chapter}{\hbox to\@tempdima {\hfil }Abstract}{iii}}
\@writefile{toc}{\contentsline {chapter}{\hbox to\@tempdima {\hfil }Declaration}{iv}}
\@writefile{toc}{\contentsline {chapter}{\hbox to\@tempdima {\hfil }Acknowledgements}{v}}
\@input{chapter1.aux}
\@input{chapter2.aux}
\@input{chapter3.aux}
\@input{chapter4.aux}
\@input{chapter5.aux}
\@input{chapter6.aux}
\@input{ref.aux}
\@input{append.aux}
