\relax 
\providecommand\zref@newlabel[2]{}
\providecommand \oddpage@label [2]{}
\pgfsyspdfmark {pgfid1}{4950088}{36360003}
\pgfsyspdfmark {pgfid2}{5317059}{13975917}
\pgfsyspdfmark {pgfid3}{4661699}{26583621}
\pgfsyspdfmark {pgfid4}{5317059}{6761268}
\pgfsyspdfmark {pgfid5}{5207809}{46035774}
