\contentsline {chapter}{\numberline {1}Sample Title}{1}
\contentsline {chapter}{\numberline {2}Sample Title}{2}
\contentsline {chapter}{\numberline {3}Sample Title}{3}
\contentsline {chapter}{\numberline {A}Sample Title}{4}
\contentsline {chapter}{\numberline {B}Sample Title}{5}
